…
-   The intended puzzle complexity is reflected in the average word length for each day.
-   Friday and Saturday words seem to be growing longer much faster the other days'.
-   Sunday words, while pitched as comparable to Wednesdays or Thursdays, are probably a little longer on average to account for the larger grid.

### What words have emerged recently?

When different words enter the lexicon, it's only a matter of time before they're referenced in popular media like the crossword. I wanted to find the words that only became popular in recent years.

To do this, I'm leveraging the concept of *term frequency-inverse document frequency* (td-idf). From Julia Silge's amazing resource, [Text Mining with R](http://tidytextmining.com/tfidf.html):

> The statistic **tf-idf** is intended to measure how important a word is to a document in a collection (or corpus) of documents, for example, to one novel in a collection of novels or to one website in a collection of websites.

If we treat each year as separate "documents", we should be able to figure out what words are most important to each year.

    ## # A tibble: 412,230 × 6
    ##     year            word     n           tf      idf       tf_idf
    ##    <int>           <chr> <int>        <dbl>    <dbl>        <dbl>
    ## 1   2017             BAE     4 0.0002075765 3.178054 0.0006596894
    ## 2   2015          BLANKS     8 0.0002590170 2.484907 0.0006436331
    ## 3   2000            TTTT     8 0.0002568548 2.484907 0.0006382602
    ## 4   2017            LGBT     5 0.0002594707 2.079442 0.0005395541
    ## 5   2017       IDRISELBA     3 0.0001556824 3.178054 0.0004947671
    ## 6   2016 LAIDITONTHELINE     4 0.0001296849 3.178054 0.0004121455
    ## 7   2016          ROMCOM     4 0.0001296849 3.178054 0.0004121455
    ## 8   2017          ABBACY     3 0.0001556824 2.484907 0.0003868563
    ## 9   2017            ETSY     4 0.0002075765 1.791759 0.0003719272
    ## 10  2017            NSFW     4 0.0002075765 1.791759 0.0003719272
    ## # ... with 412,220 more rows
…
